Disaster Relief Project
…
#>   k
#> 1 5

#>   k  Accuracy     Kappa   AccuracySD     KappaSD
#> 1 5 0.9961611 0.9377746 0.0002210399 0.004020758
#> 2 7 0.9959502 0.9342853 0.0002664929 0.004729823
#> 3 9 0.9958431 0.9324288 0.0003148741 0.005395091

The Caret package will run the cross validation through multiple values of k to select the optimal model. The best model is the final model shown above, with the best tune of k=5. This is the model I used to calculate the ROC curve and precision recall curve. You can see from the table that this model had the best accuracy, though it is not clear the threshold used to determine that accuracy, or if this is another measure of accuracy.

3.5 Penalized Logistic Regression (ElasticNet)

#> # A tibble: 48,393 x 3
#>     .threshold specificity sensitivity
#>          <dbl>       <dbl>       <dbl>
#>  1 -Inf           0                  1
#>  2    7.51e-13    0                  1
#>  3    8.48e-13    0.000495           1
#>  4    1.15e-12    0.000989           1
#>  5    1.20e-12    0.00148            1
#>  6    1.27e-12    0.00198            1
#>  7    1.45e-12    0.00247            1
#>  8    1.82e-12    0.00297            1
#>  9    1.93e-12    0.00346            1
#> 10    2.11e-12    0.00396            1
#> #  with 48,383 more rows
…
#> # A tibble: 48,392 x 3
#>    .threshold   recall precision
#>         <dbl>    <dbl>     <dbl>
#>  1     Inf    0                1
#>  2       1    0.000359         1
#>  3       1.00 0.000833         1
#>  4       1.00 0.00108          1
#>  5       1.00 0.00137          1
#>  6       1.00 0.00170          1
#>  7       1.00 0.00191          1
#>  8       1.00 0.00211          1
#>  9       1.00 0.00232          1
#> 10       1.00 0.00247          1
#> #  with 48,382 more rows
…
#>   mtry  Accuracy     Kappa   AccuracySD     KappaSD num_trees
#> 1    2 0.9957658 0.9301793 0.0002903687 0.005664213        25
#> 2    6 0.9957306 0.9303791 0.0002142535 0.003863963        25
#> 3    5 0.9957130 0.9298727 0.0003951489 0.006898454        24
#> 4   10 0.9956990 0.9298576 0.0003386598 0.006035337        25
#> 5    2 0.9956849 0.9287639 0.0004502504 0.008445817        17
#> 6    4 0.9956779 0.9290254 0.0003741924 0.007221128        19

#> [1] 2

The results give us the highest number of trees in the range, but there is pretty good variation in the first 6 so I think our tree range is safe.

#> # A tibble: 28 x 3
#>    .threshold specificity sensitivity
#>         <dbl>       <dbl>       <dbl>
#>  1  -Inf            0           1    
#>  2     0            0           1    
#>  3     0.04         0.713       1.00 
#>  4     0.0800       0.785       1.00 
#>  5     0.12         0.836       1.00 
#>  6     0.16         0.862       1.00 
#>  7     0.200        0.878       1.00 
#>  8     0.24         0.892       0.999
#>  9     0.28         0.906       0.999
#> 10     0.320        0.915       0.999
#> #  with 18 more rows
…
#> # A tibble: 27 x 3
#>    .threshold recall precision
#>         <dbl>  <dbl>     <dbl>
#>  1     Inf     0         1    
#>  2       1     0.992     1.00 
#>  3       0.96  0.995     1.00 
#>  4       0.92  0.996     1.00 
#>  5       0.88  0.996     0.999
#>  6       0.84  0.997     0.999
#>  7       0.8   0.997     0.999
#>  8       0.76  0.997     0.999
#>  9       0.72  0.998     0.999
#> 10       0.68  0.998     0.999
#> #  with 17 more rows
…
3.7.1 SVM Linear

svm.tune.linear$performances

#>   cost       error   dispersion
#> 1    5 0.003652691 0.0008078339
#> 2    7 0.003526192 0.0007890470
#> 3    9 0.003462941 0.0008643225
#> 4   11 0.003462941 0.0008513679
#> 5   13 0.003431313 0.0008302043

Initial passes showed that a cost of 0.01 had an error fo 0.12, while the better error rates were with costs of around 5 and 10 at around 0.003. As the cost increased, error decreased, but after a cost of about 5, the decrease in error became small. I decided to use a cost range of 5-13 for tuning. Im sure a cost of above 13 will give a lower cost but I am wary of overtraining. Here, 13 gives the best error, but 9 and 11 have the same error. Because this seems like a plateau, I will chose the lower value of 9. The error is so similar, a cost of 9 seems like a safer value if concerned about overtraining.

#> # A tibble: 29,605 x 3
#>    .threshold specificity sensitivity
#>         <dbl>       <dbl>       <dbl>
#>  1 -Inf             0               1
#>  2    1.00e-7       0               1
#>  3    1.05e-7       0.378           1
#>  4    1.07e-7       0.378           1
#>  5    1.18e-7       0.379           1
#>  6    1.24e-7       0.379           1
#>  7    1.31e-7       0.380           1
#>  8    1.35e-7       0.380           1
#>  9    1.36e-7       0.381           1
#> 10    1.38e-7       0.381           1
#> #  with 29,595 more rows
…
#> # A tibble: 29,604 x 3
#>    .threshold recall precision
#>         <dbl>  <dbl>     <dbl>
#>  1     Inf     0             1
#>  2       1.00  0.438         1
#>  3       1.00  0.438         1
#>  4       1.00  0.438         1
#>  5       1.00  0.438         1
#>  6       1.00  0.438         1
#>  7       1.00  0.438         1
#>  8       1.00  0.438         1
#>  9       1.00  0.438         1
#> 10       1.00  0.438         1
#> #  with 29,594 more rows
…
Similar to my approach in linear, I used my first few times running the tuning function to chose a list of 5 tuning candidates for cost and gamma. Looking at these results it seems like Ive got a pretty good spread of several different Gamma and Cost values (if all the top results were the highest cost and gamma, I might expand the range).

#> Joining, by = c("fold", "actual", "prediction")
#> Joining, by = c("fold", "actual", "prediction")
#> Joining, by = c("fold", "actual", "prediction")
#> Joining, by = c("fold", "actual", "prediction")
#> Joining, by = c("fold", "actual", "prediction")
#> Joining, by = c("fold", "actual", "prediction")
#> Joining, by = c("fold", "actual", "prediction")
#> Joining, by = c("fold", "actual", "prediction")
#> Joining, by = c("fold", "actual", "prediction")
#> Joining, by = c("fold", "actual", "prediction")

#> # A tibble: 42,962 x 3
#>    .threshold specificity sensitivity
#>         <dbl>       <dbl>       <dbl>
#>  1 -Inf            0                1
#>  2    1.00e-7      0                1
#>  3    1.02e-7      0.0104           1
#>  4    1.13e-7      0.0109           1
#>  5    1.22e-7      0.0114           1
#>  6    1.23e-7      0.0119           1
#>  7    1.25e-7      0.0124           1
#>  8    1.26e-7      0.0129           1
#>  9    1.31e-7      0.0134           1
#> 10    1.36e-7      0.0138           1
#> #  with 42,952 more rows
…
#> # A tibble: 42,961 x 3
#>    .threshold recall precision
#>         <dbl>  <dbl>     <dbl>
#>  1     Inf     0             1
#>  2       1.00  0.113         1
#>  3       1.00  0.113         1
#>  4       1.00  0.113         1
#>  5       1.00  0.113         1
#>  6       1.00  0.113         1
#>  7       1.00  0.113         1
#>  8       1.00  0.113         1
#>  9       1.00  0.113         1
#> 10       1.00  0.113         1
#> #  with 42,951 more rows
…
